{
  "version": "1.0.0-*",
  "buildOptions": {
    "debugType": "portable",
    "emitEntryPoint": true
  },
  "dependencies": {},
  "tools": {
    "Microsoft.EntityFrameworkCore.Tools.DotNet": "1.1.0-preview4"
  },
  "frameworks": {
    "netcoreapp1.1": {
      "dependencies": {
        "Microsoft.NETCore.App": {
          "type": "platform",
          "version": "1.1.0"
        },
        "Microsoft.Extensions.Configuration.EnvironmentVariables": "1.1.0",
        "Microsoft.Extensions.Configuration.Json": "1.1.0",
        "Microsoft.Extensions.Configuration.CommandLine": "1.1.0",
        "Microsoft.EntityFrameworkCore" : "1.1.0",
        "Microsoft.EntityFrameworkCore.Sqlite" : "1.1.0",
        "Microsoft.EntityFrameworkCore.Design" : "1.1.0",
        "System.Collections": "4.3.0"
      },
      "imports": "dnxcore50"
    }
  }
}
